15

O         -0.10070        0.03763        2.15322
H          0.70500       -0.10157        1.62652
H         -0.31380        0.96103        1.94502
O          1.64720        0.06823       -0.22778
H          1.22860       -0.67177       -0.73528
H          2.56420        0.09893       -0.52618
O         -1.85160       -0.56057       -0.05818
H         -1.41190       -0.57577        0.81552
H         -1.74680        0.37533       -0.30138
O         -0.40190        1.98003       -0.09018
H         -0.31750        2.83123       -0.53658
H          0.41950        1.49033       -0.30038
O          0.12720       -1.78967       -1.48298
H         -0.69420       -1.42657       -1.06728
H          0.14670       -2.71677       -1.21408