18

O     -1.72674400      -1.94937300      -0.28696700
H     -2.04961100      -1.02159300      -0.32910600
H     -2.49471900      -2.47594700      -0.05241700
O     -2.59026600       0.62259900      -0.36163600
H     -1.94834000       1.27648400      -0.00529500
H     -2.87658700       0.99098200      -1.20154400
O     -0.79461000       2.41504100       0.61061700
H      0.13441000       2.26696700       0.32798500
H     -0.75442700       2.53636700       1.56255200
O      2.59016300      -0.62273600      -0.36190100
H      1.94826400      -1.27655500      -0.00538100
H      2.87625100      -0.99116700      -1.20186600
O      0.79455700      -2.41484700       0.61098900
H      0.75437800      -2.53581200       1.56297100
H     -0.13445100      -2.26674200       0.32830100
O      1.72692200       1.94930100      -0.28670600
H      2.49505400       2.47567300      -0.05222900
H      2.04959200       1.02146900      -0.32914400
